Model; Coordinates; Date; Data

HM-54;2.076300, 1.250100;2016-03-17;-0.14;-0.12;-0.3;
JB-44;2.061600, 1.254500;2015-05-01;0.21;0.32;0.18;-0.22;
LR-;2.590900, 2.164000;2009-09-04;-0.011;0;-0.029;
Y-;0.345000, 1.506600;2009-08-28;0.026;-0.048;0.05;0.051;
Y-;0.345000, 1.506600;2009-08-28;0.026;-0.048;0.05;0.051;
